Area Planning Work with R
…
Setup

First steps

Get data

Combine with metadata

Recalculate variables

Use areal interpolation as needed

Using getACS to get data, combine with metadata, and recalculate estimates as a share of the denominator:

# A tibble: 240 × 24
   GEOID NAME  variable column_id table_id estimate   moe perc_estimate perc_moe
   <chr> <chr> <chr>    <chr>     <chr>       <dbl> <dbl>         <dbl>    <dbl>
 1 11001 Dist… B08134_… B08134001 B08134     297447  3393          1        0.02
 2 11001 Dist… B08134_… B08134002 B08134      15708  1235          0.05     0   
 3 11001 Dist… B08134_… B08134003 B08134      22069  1093          0.07     0   
 4 11001 Dist… B08134_… B08134004 B08134      34554  1826          0.12     0.01
 5 11001 Dist… B08134_… B08134005 B08134      43447  1548          0.15     0   
 6 11001 Dist… B08134_… B08134006 B08134      22820  1166          0.08     0   
 7 11001 Dist… B08134_… B08134007 B08134      60341  2153          0.2      0.01
 8 11001 Dist… B08134_… B08134008 B08134      38187  1849          0.13     0.01
 9 11001 Dist… B08134_… B08134009 B08134      34521  1746          0.12     0.01
10 11001 Dist… B08134_… B08134010 B08134      25800  1395          0.09     0   
# ℹ 230 more rows
# ℹ 15 more variables: table_title <chr>, simple_table_title <chr>,
#   subject_area <chr>, universe <chr>, denominator_column_id <chr>,
#   topics <chr>, line_number <dbl>, column_title <chr>, indent <dbl>,
#   parent_column_id <chr>, denominator_estimate <dbl>, denominator_moe <dbl>,
#   denominator_column_title <chr>, geography <chr>, state <chr>
…
